<svg width="77" height="71" viewBox="0 0 77 71" fill="none" xmlns="http://www.w3.org/2000/svg">
<path d="M15.375 35.75C16.1344 35.75 16.75 36.3656 16.75 37.125C16.75 37.8301 16.2192 38.4113 15.5354 38.4908L15.375 38.5H14V55H19.5V39.875C19.5 39.1699 20.0308 38.5887 20.7146 38.5092L20.875 38.5C21.5801 38.5 22.1613 39.0308 22.2407 39.7146L22.25 39.875V56.375C22.25 57.0801 21.7192 57.6613 21.0354 57.7407L20.875 57.75H12.625C11.9199 57.75 11.3387 57.2192 11.2592 56.5354L11.25 56.375V37.125C11.25 36.4199 11.7808 35.8387 12.4646 35.7592L12.625 35.75H15.375Z" fill="#000091"/>
<path d="M29.125 46.75C29.8844 46.75 30.5 47.3656 30.5 48.125C30.5 48.8301 29.9692 49.4113 29.2854 49.4908L29.125 49.5H27.75V55H33.25V48.125C33.25 47.4199 33.7808 46.8387 34.4646 46.7592L34.625 46.75C35.3301 46.75 35.9113 47.2808 35.9907 47.9646L36 48.125V56.375C36 57.0801 35.4692 57.6613 34.7854 57.7407L34.625 57.75H26.375C25.6699 57.75 25.0887 57.2192 25.0093 56.5354L25 56.375V48.125C25 47.4199 25.5308 46.8387 26.2146 46.7592L26.375 46.75H29.125Z" fill="#000091"/>
<path fill-rule="evenodd" clip-rule="evenodd" d="M9.875 22C9.875 18.9659 12.341 16.5 15.375 16.5C18.409 16.5 20.875 18.9659 20.875 22C20.875 25.0339 18.4089 27.5 15.375 27.5C12.3411 27.5 9.875 25.0339 9.875 22ZM18.125 22C18.125 20.4847 16.8902 19.25 15.375 19.25C13.8598 19.25 12.625 20.4847 12.625 22C12.625 23.5151 13.8599 24.75 15.375 24.75C16.8901 24.75 18.125 23.5151 18.125 22Z" fill="#E1000F"/>
<path d="M18.5277 23.7777C19.0234 23.2821 19.8033 23.2439 20.3427 23.6633L20.4723 23.7777L25.9723 29.2777C26.5092 29.8147 26.5092 30.6853 25.9723 31.2223C25.4766 31.7179 24.6967 31.7561 24.1573 31.3367L24.0277 31.2223L18.5277 25.7223C17.9908 25.1853 17.9908 24.3147 18.5277 23.7777Z" fill="#E1000F"/>
<path d="M35.3851 27.6452C36.0643 27.3056 36.8902 27.5809 37.2298 28.2601C37.5452 28.8908 37.3303 29.648 36.7542 30.0249L36.6149 30.1048L33.8649 31.4798C33.1857 31.8194 32.3598 31.5441 32.0202 30.8649C31.7048 30.2342 31.9197 29.477 32.4958 29.1001L32.6351 29.0202L35.3851 27.6452Z" fill="#E1000F"/>
<path fill-rule="evenodd" clip-rule="evenodd" d="M23.625 30.25C23.625 27.2159 26.091 24.75 29.125 24.75C32.159 24.75 34.625 27.2159 34.625 30.25C34.625 33.2839 32.1589 35.75 29.125 35.75C26.0911 35.75 23.625 33.2839 23.625 30.25ZM31.875 30.25C31.875 28.7347 30.6402 27.5 29.125 27.5C27.6098 27.5 26.375 28.7347 26.375 30.25C26.375 31.7651 27.6099 33 29.125 33C30.6401 33 31.875 31.7651 31.875 30.25Z" fill="#E1000F"/>
<path d="M57.8004 34.0062C58.0041 33.2746 58.7623 32.8467 59.4938 33.0504C62.7107 33.9461 65.1769 36.4692 65.8298 39.5976C65.9849 40.341 65.5081 41.0693 64.7647 41.2245C64.0213 41.3796 63.2929 40.9028 63.1378 40.1594C62.6997 38.0605 61.0038 36.3255 58.7562 35.6996C58.0246 35.4959 57.5967 34.7377 57.8004 34.0062Z" fill="#E1000F"/>
<path fill-rule="evenodd" clip-rule="evenodd" d="M44 41.25C44 33.6666 50.1668 27.5 57.75 27.5C65.3332 27.5 71.5 33.6666 71.5 41.25C71.5 44.7784 70.1648 48.0003 67.9729 50.4369L76.0789 64.4769C77.218 66.4499 76.542 68.9727 74.5691 70.1118C72.6666 71.2102 70.2528 70.6208 69.0615 68.8083L68.9342 68.6019L60.8745 54.6421C59.8704 54.8762 58.8244 55 57.75 55C50.167 55 44 48.833 44 41.25ZM63.5228 53.7291L71.3158 67.2269C71.6955 67.8846 72.5364 68.1099 73.1941 67.7302C73.8047 67.3776 74.0427 66.6273 73.7695 65.9954L73.6974 65.8519L65.8888 52.327C65.1525 52.8694 64.3604 53.3402 63.5228 53.7291ZM68.75 41.25C68.75 35.1854 63.8144 30.25 57.75 30.25C51.6856 30.25 46.75 35.1854 46.75 41.25C46.75 47.3142 51.6858 52.25 57.75 52.25C63.8142 52.25 68.75 47.3142 68.75 41.25Z" fill="#E1000F"/>
<path d="M76.9907 1.21465C76.9113 0.530805 76.3301 0 75.625 0H1.375L1.21465 0.00925063C0.530805 0.0886776 0 0.669851 0 1.375V64.625L0.00925063 64.7854C0.0886776 65.4692 0.669851 66 1.375 66H59.125L59.2854 65.9907C59.9692 65.9113 60.5 65.3301 60.5 64.625L60.4907 64.4646C60.4113 63.7808 59.8302 63.25 59.125 63.25H2.75V13.75H53.625L53.7854 13.7408C54.4692 13.6613 55 13.0801 55 12.375C55 11.6156 54.3844 11 53.625 11H2.75V2.75H74.25V11H61.875L61.7146 11.0093C61.0308 11.0887 60.5 11.6699 60.5 12.375C60.5 13.1344 61.1156 13.75 61.875 13.75H74.25V53.625L74.2593 53.7854C74.3387 54.4692 74.9199 55 75.625 55C76.3844 55 77 54.3844 77 53.625V1.375L76.9907 1.21465Z" fill="#000091"/>
<path d="M6.875 8.25C6.11682 8.25 5.5 7.63318 5.5 6.875C5.5 6.11676 6.11682 5.5 6.875 5.5C7.63318 5.5 8.25 6.11676 8.25 6.875C8.25 7.63318 7.63318 8.25 6.875 8.25Z" fill="#000091"/>
<path d="M11 6.875C11 7.63318 11.6168 8.25 12.375 8.25C13.1332 8.25 13.75 7.63318 13.75 6.875C13.75 6.11676 13.1332 5.5 12.375 5.5C11.6168 5.5 11 6.11676 11 6.875Z" fill="#000091"/>
<path d="M17.875 8.25C17.1168 8.25 16.5 7.63318 16.5 6.875C16.5 6.11676 17.1168 5.5 17.875 5.5C18.6332 5.5 19.25 6.11676 19.25 6.875C19.25 7.63318 18.6332 8.25 17.875 8.25Z" fill="#000091"/>
<path d="M70.125 5.5C70.8844 5.5 71.5 6.11561 71.5 6.875C71.5 7.58015 70.9692 8.16132 70.2854 8.24075L70.125 8.25H28.875C28.1156 8.25 27.5 7.63439 27.5 6.875C27.5 6.16985 28.0308 5.58868 28.7146 5.50925L28.875 5.5H70.125Z" fill="#000091"/>
</svg>
